Germany,Aachen,3
Turkey,Ankara,1
Belgium,Antwerp,
Greece,Athens,1
Portugal,Aveiro,2
Bosnia and Herzegovina,Banja Luka,4
Serbia,Belgrade,4
Romania,Bucharest,5
Hungary,Budapest,5
Turkey,Bursa,1
Italy,Cosenza,
Romania,Craiova,5
The Netherlands,Delft,3
Ireland,Dublin,
Germany,Duisburg,3
Bosnia and Herzegovina,East Sarajevo,4
The Netherlands,Eindhoven,
Turkey,Eskisehir,1
Poland,Gdansk,
Poland,Gliwice,
Portugal,Guimarães,
Germany,Hamburg,
Turkey,Istanbul,1
Turkey,Izmir,1
Germany,Karlsruhe,3
Poland,Krakow,5
Finland,Lappeenranta,
France,Lille,3
Slovenia,Ljubljana,5
Spain,Madrid,2
England,Manchester,
Italy,Milan,2
Germany,Munich,3
Serbia,Nis,4
Serbia,Novi Sad,4
Greece,Patras,1
Montenegro,Podgorica,4
Portugal,Porto,2
Italy,Rome,2
Russia,Saint Petersburg,5
Bosnia and Herzegovina,Sarajevo,4
Northern Macedonia,Skopje,4
Bulgaria,Sofia,1
Finland,Tampere,5
Greece,Thessaloniki,1
Albania,Tirana,1
Italy,Trieste,2
Bosnia and Herzegovina,Tuzla,4
Spain,Valencia,
Austria,Vienna,3
Greece,Xanthi,1
Croatia,Zagreb,4
Switzerland,Zurich,3
